Collaborator Analysis
…
traps_max <- lobster_traps %>%
  group_by(SITE, MONTH) %>%
  summarize(max_traps = max(TRAPS, na.rm = TRUE))

`summarise()` has regrouped the output.
ℹ Summaries were computed grouped by SITE and MONTH.
ℹ Output is grouped by SITE.
ℹ Use `summarise(.groups = "drop_last")` to silence this message.
ℹ Use `summarise(.by = c(SITE, MONTH))` for per-operation grouping
  (`?dplyr::dplyr_by`) instead.

traps_max

# A tibble: 55 × 3
# Groups:   SITE [10]
   SITE  MONTH max_traps
   <chr> <dbl>     <dbl>
 1 ABUR      1         7
 2 ABUR      2         5
 3 ABUR      3         3
 4 ABUR     10        21
 5 ABUR     11        16
 6 ABUR     12         8
 7 AHND      1         2
 8 AHND      2         2
 9 AHND      3         3
10 AHND     10         6
# ℹ 45 more rows
…
